\boolfalse {citerequest}\boolfalse {citetracker}\boolfalse {pagetracker}\boolfalse {backtracker}\relax 
\defcounter {refsection}{0}\relax 
\selectlanguage *{english}
\defcounter {refsection}{0}\relax 
\beamer@sectionintoc {1}{Introduction}{3}{0}{1}
\defcounter {refsection}{0}\relax 
\beamer@sectionintoc {2}{Proposed solution}{8}{0}{2}
\defcounter {refsection}{0}\relax 
\beamer@sectionintoc {3}{Experiments}{18}{0}{3}
\defcounter {refsection}{0}\relax 
\beamer@sectionintoc {4}{Results}{20}{0}{4}
\defcounter {refsection}{0}\relax 
\beamer@sectionintoc {5}{Conclusion}{27}{0}{5}
